FORECASTING FINAL PROJECT
…
Code

cv_forecasts %>%
  group_by(.id, .model) %>%
  mutate(h = row_number()) %>% 
  ungroup() %>%
  as_fable(response = "construction_spending", distribution = construction_spending) %>%  
  accuracy(data_train, by = c("h", ".model")) %>%
  select(.model, h, RMSE, MAE, MAPE, MASE)  

# A tibble: 36 × 6
   .model                     h  RMSE   MAE   MAPE   MASE
   <chr>                  <int> <dbl> <dbl>  <dbl>  <dbl>
 1 best_arima                 1  381.  318.  0.793 0.0627
 2 multiplicative_prophet     1 2486. 1493.  3.38  0.294 
 3 naive                      1 4554. 4476. 10.7   0.883 
 4 best_arima                 2 1176.  925.  2.13  0.182 
 5 multiplicative_prophet     2 2465. 1615.  3.36  0.318 
 6 naive                      2 4317. 4131.  9.50  0.815 
 7 best_arima                 3 1969. 1563.  3.43  0.308 
 8 multiplicative_prophet     3 2892. 2245.  4.66  0.443 
 9 naive                      3 4203. 3611   8.26  0.712 
10 best_arima                 4 2578. 2217.  4.82  0.437 
# ℹ 26 more rows
…
